what,kind,bundleId,bundleVersion,description,time
stopped,bundle,org.eclipse.m2e.launching,1.2.0.20120903-1050,"org.eclipse.m2e.launching",1400901881975
stopped,bundle,org.eclipse.jdt.debug.ui,3.6.100.v20120530-1425,"org.eclipse.jdt.debug.ui",1400901881975
stopped,bundle,org.eclipse.m2e.jdt,1.2.0.20120903-1050,"org.eclipse.m2e.jdt",1400901881991
stopped,bundle,org.eclipse.m2e.refactoring,1.2.0.20120903-1050,"org.eclipse.m2e.refactoring",1400901881992
