INDEX VERSION 1.126+G:\Users\CJ\Documents\programming\Stupid Projects\G19 apps\.metadata\.plugins\org.eclipse.jdt.core
4155206848.index
1498219845.index
47624529.index
1995173708.index
1299022128.index
163172794.index
1697886153.index
1812777075.index
3065916431.index
4041092966.index
573184213.index
3974580528.index
305854171.index
30765161.index
1115467115.index
3133528496.index
4108727661.index
